Mid-term project instructions
…
treatment
15.9886
6
0.0138

rcbd_mix_resid <- augment(model) %>%
  mutate(.studresid=rstudent(model))

rcbd_mix_resid

# A tibble: 28 × 15
   lint_kgha treatment blocks .fitted  .resid  .hat .cooksd .fixed   .mu .offset
       <dbl> <fct>     <fct>    <dbl>   <dbl> <dbl>   <dbl>  <dbl> <dbl>   <dbl>
 1     2515. 36+114    1        1957.  557.    0.25 3.82e-1  1957. 1957.       0
 2     2151. 36+84     1        2094.   56.7   0.25 3.96e-3  2094. 2094.       0
 3     1496. 0+0       1        1502.   -6.29  0.25 4.86e-5  1502. 1502.       0
 4     1673. 36+24     1        1876. -203.    0.25 5.08e-2  1876. 1876.       0
 5     1981. 36+54     1        1949.   31.9   0.25 1.25e-3  1949. 1949.       0
 6     1740. 36+VRN    1        1895. -155.    0.25 2.97e-2  1895. 1895.       0
 7     2178. 100+0     1        1968.  210.    0.25 5.41e-2  1968. 1968.       0
 8     2176. 36+54     2        1949.  228.    0.25 6.37e-2  1949. 1949.       0
 9     2179. 36+84     2        2094.   85.0   0.25 8.90e-3  2094. 2094.       0
10     2052. 36+VRN    2        1895.  157.    0.25 3.05e-2  1895. 1895.       0
# ℹ 18 more rows
# ℹ 5 more variables: .sqrtXwt <dbl>, .sqrtrwt <dbl>, .weights <dbl>,
#   .wtres <dbl>, .studresid <dbl>
…
